{"name":"I want to create a new user","id":"as-a-user-i-would-like-to-check-the-crud-functionality-of-reqres.in:I want to create a new user","testSteps":[{"number":1,"description":"Given I am on homepage of the given url","duration":767,"startTime":"2022-06-21T12:41:38.384+01:00[Europe/London]","result":"SUCCESS","precondition":false},{"number":2,"description":"When I send POST request to the the application using a valid payload to create a User","duration":11683,"startTime":"2022-06-21T12:41:39.157+01:00[Europe/London]","result":"SUCCESS","precondition":false,"children":[{"number":3,"description":"Creating user with firstName : Ramesh2022, job: Tester","duration":11525,"startTime":"2022-06-21T12:41:39.311+01:00[Europe/London]","result":"SUCCESS","precondition":false,"children":[{"number":4,"description":"POST https://reqres.in/api/users\r\r","duration":0,"startTime":"2022-06-21T12:41:50.802+01:00[Europe/London]","result":"SUCCESS","restQuery":{"method":"POST","path":"https://reqres.in/api/users\r\r","content":"{\n    \"name\": \"Ramesh2022\",\n    \"job\": \"Tester\"\n}\r","contentType":"application/json","requestHeaders":"Accept\u003d*/*\r\n\t\t\t\tContent-Type\u003dapplication/json; charset\u003dUTF-8\r\r","requestCookies":"\r\r","responseHeaders":"Date: Tue, 21 Jun 2022 11:41:50 GMT\nContent-Type: application/json; charset\u003dutf-8\nContent-Length: 86\nConnection: keep-alive\nX-Powered-By: Express\nAccess-Control-Allow-Origin: *\nEtag: W/\"56-5F4KeHK1JSslks8Ro9O1YesQzMw\"\nVia: 1.1 vegur\nCF-Cache-Status: DYNAMIC\nExpect-CT: max-age\u003d604800, report-uri\u003d\"https://report-uri.cloudflare.com/cdn-cgi/beacon/expect-ct\"\nReport-To: {\"endpoints\":[{\"url\":\"https:\\/\\/a.nel.cloudflare.com\\/report\\/v3?s\u003dmdCE3tmP0R3%2FZsOvi860CkvpkEEyZ%2BBbw3ubhgLdyrCZKY2S1T%2BIbPskp3yG9IOPsEjZkmgRET0RtQTTH5CvWivT5t2x7pICMg5NoaAHjM2FSIZubS8MKBdqYg%3D%3D\"}],\"group\":\"cf-nel\",\"max_age\":604800}\nNEL: {\"success_fraction\":0,\"report_to\":\"cf-nel\",\"max_age\":604800}\nServer: cloudflare\nCF-RAY: 71ec7a343c0676d7-LHR\r","responseCookies":"\r","responseBody":"{\n    \"name\": \"Ramesh2022\",\n    \"job\": \"Tester\",\n    \"id\": \"594\",\n    \"createdAt\": \"2022-06-21T11:41:50.145Z\"\n}","statusCode":201},"precondition":false}]}]},{"number":5,"description":"Then I get status code 201","duration":97,"startTime":"2022-06-21T12:41:50.842+01:00[Europe/London]","result":"SUCCESS","precondition":false},{"number":6,"description":"And I verify if user has been added to the application","duration":1759,"startTime":"2022-06-21T12:41:50.943+01:00[Europe/London]","result":"SUCCESS","precondition":false,"children":[{"number":7,"description":"Getting the user information with firstName: Tobias","duration":1737,"startTime":"2022-06-21T12:41:50.945+01:00[Europe/London]","result":"SUCCESS","precondition":false,"children":[{"number":8,"description":"GET https://reqres.in/api/users?page\u003d2\r\r","duration":0,"startTime":"2022-06-21T12:41:51.279+01:00[Europe/London]","result":"SUCCESS","restQuery":{"method":"GET","path":"https://reqres.in/api/users?page\u003d2\r\r","content":"\r","contentType":"null","requestHeaders":"Accept\u003d*/*\r\r","requestCookies":"\r\r","responseHeaders":"Date: Tue, 21 Jun 2022 11:41:50 GMT\nContent-Type: application/json; charset\u003dutf-8\nTransfer-Encoding: chunked\nConnection: keep-alive\nX-Powered-By: Express\nAccess-Control-Allow-Origin: *\nEtag: W/\"406-ut0vzoCuidvyMf8arZpMpJ6ZRDw\"\nVia: 1.1 vegur\nCache-Control: max-age\u003d14400\nCF-Cache-Status: HIT\nAge: 1797\nExpect-CT: max-age\u003d604800, report-uri\u003d\"https://report-uri.cloudflare.com/cdn-cgi/beacon/expect-ct\"\nReport-To: {\"endpoints\":[{\"url\":\"https:\\/\\/a.nel.cloudflare.com\\/report\\/v3?s\u003d2Lnmda1XiBk8SONmx8PckDpWJFk6zgzfYhsQc6L2JiuSwY%2BGB3%2FT3wPSnbGZ%2F39Igf7aGPeqQa90ApC5JAj54MfHxzp%2FBJeXm7MlR%2FuM0MKDkPrZ%2FWZkZctmRA%3D%3D\"}],\"group\":\"cf-nel\",\"max_age\":604800}\nNEL: {\"success_fraction\":0,\"report_to\":\"cf-nel\",\"max_age\":604800}\nVary: Accept-Encoding\nServer: cloudflare\nCF-RAY: 71ec7a389e1e888f-LHR\nContent-Encoding: gzip\r","responseCookies":"\r","responseBody":"{\n    \"page\": 2,\n    \"per_page\": 6,\n    \"total\": 12,\n    \"total_pages\": 2,\n    \"data\": [\n        {\n            \"id\": 7,\n            \"email\": \"michael.lawson@reqres.in\",\n            \"first_name\": \"Michael\",\n            \"last_name\": \"Lawson\",\n            \"avatar\": \"https://reqres.in/img/faces/7-image.jpg\"\n        },\n        {\n            \"id\": 8,\n            \"email\": \"lindsay.ferguson@reqres.in\",\n            \"first_name\": \"Lindsay\",\n            \"last_name\": \"Ferguson\",\n            \"avatar\": \"https://reqres.in/img/faces/8-image.jpg\"\n        },\n        {\n            \"id\": 9,\n            \"email\": \"tobias.funke@reqres.in\",\n            \"first_name\": \"Tobias\",\n            \"last_name\": \"Funke\",\n            \"avatar\": \"https://reqres.in/img/faces/9-image.jpg\"\n        },\n        {\n            \"id\": 10,\n            \"email\": \"byron.fields@reqres.in\",\n            \"first_name\": \"Byron\",\n            \"last_name\": \"Fields\",\n            \"avatar\": \"https://reqres.in/img/faces/10-image.jpg\"\n        },\n        {\n            \"id\": 11,\n            \"email\": \"george.edwards@reqres.in\",\n            \"first_name\": \"George\",\n            \"last_name\": \"Edwards\",\n            \"avatar\": \"https://reqres.in/img/faces/11-image.jpg\"\n        },\n        {\n            \"id\": 12,\n            \"email\": \"rachel.howell@reqres.in\",\n            \"first_name\": \"Rachel\",\n            \"last_name\": \"Howell\",\n            \"avatar\": \"https://reqres.in/img/faces/12-image.jpg\"\n        }\n    ],\n    \"support\": {\n        \"url\": \"https://reqres.in/#support-heading\",\n        \"text\": \"To keep ReqRes free, contributions towards server costs are appreciated!\"\n    }\n}","statusCode":200},"precondition":false}]}]}],"userStory":{"id":"as-a-user-i-would-like-to-check-the-crud-functionality-of-reqres.in","storyName":"As a user I would like to check the CRUD functionality of reqres.in","path":"user.feature","type":"feature"},"featureTag":{"name":"As a user I would like to check the CRUD functionality of reqres.in","type":"feature"},"title":"I want to create a new user","description":"","tags":[{"name":"As a user I would like to check the CRUD functionality of reqres.in","type":"feature"},{"name":"reqres","type":"tag"}],"startTime":"2022-06-21T12:41:37.898+01:00[Europe/London]","duration":14804,"projectKey":"","manual":false,"result":"SUCCESS"}